Division,WeightClassKg,Place,Name,Team,BodyweightKg,Best3SquatKg,Best3BenchKg,Best3DeadliftKg,TotalKg,Equipment,Event,Sex,BirthDate
Boys,55.79,1,Abiel Trigueros,Jewett Leon,53.98,122.47,61.23,131.54,315.25,Single-ply,SBD,M,
Boys,59.87,1,Evan Basinger,Madisonville,58.97,133.81,88.45,156.49,378.75,Single-ply,SBD,M,
Boys,59.87,2,Carlos Bolaños,Jewett Leon,59.78,140.61,74.84,156.49,371.95,Single-ply,SBD,M,
Boys,59.87,3,Colton Pearson,Centerville,57.65,129.27,63.5,124.74,317.51,Single-ply,SBD,M,
Boys,59.87,DQ,Jer'mal Holland,Madisonville,59.65,,81.65,161.03,,Single-ply,SBD,M,
Boys,67.13,1,Braedon Scott,Madisonville,66.18,188.24,95.25,204.12,487.61,Single-ply,SBD,M,
Boys,67.13,2,Max Herrera,Chilton,64.68,181.44,122.47,181.44,485.34,Single-ply,SBD,M,
Boys,67.13,3,Ronnie Mosley,Madisonville,63.82,181.44,83.91,183.7,449.06,Single-ply,SBD,M,
Boys,67.13,4,Ryan Barbera,Chilton,63.91,154.22,97.52,170.1,421.84,Single-ply,SBD,M,
Boys,67.13,5,Josh Robinson,Centerville,63.5,142.88,83.91,149.69,376.48,Single-ply,SBD,M,
Boys,67.13,DQ,Enrique Cruz,Centerville,63.68,129.27,,129.27,,Single-ply,SBD,M,
Boys,67.13,DQ,Anthony Haney,Jewett Leon,63.28,,72.57,174.63,,Single-ply,SBD,M,
Boys,74.84,1,Benjamin Caperton,Madisonville,69.31,174.63,97.52,199.58,471.74,Single-ply,SBD,M,
Boys,74.84,2,Nate Pedigo,Jewett Leon,74.53,145.15,95.25,163.29,403.7,Single-ply,SBD,M,
Boys,82.1,2,Luis Guillen,Jewett Leon,80.42,195.04,127.01,226.8,548.85,Single-ply,SBD,M,
Boys,82.1,3,James Webb,Centerville,79.06,181.44,133.81,199.58,514.83,Single-ply,SBD,M,
Boys,82.1,4,Conner Swonke,Madisonville,80.06,199.58,108.86,199.58,508.02,Single-ply,SBD,M,
Boys,82.1,5,Dd Starnes,Centerville,77.88,199.58,111.13,183.7,494.42,Single-ply,SBD,M,
Boys,82.1,6,Dude West,Centerville,81.01,181.44,111.13,185.97,478.54,Single-ply,SBD,M,
Boys,82.1,7,Zach Taylor,Centerville,78.38,165.56,129.27,170.1,464.93,Single-ply,SBD,M,
Boys,89.81,1,Alex Torres #5,Madisonville,88.77,210.92,115.67,208.65,535.24,Single-ply,SBD,M,
Boys,89.81,2,Lee Frank,Hearne,89.81,163.29,92.99,172.37,428.64,Single-ply,SBD,M,
Boys,89.81,DQ,Cameron Pate,Centerville,88.36,204.12,113.4,,,Single-ply,SBD,M,
Boys,89.81,DQ,Dylan Blakley,Madisonville,88.5,,83.91,154.22,,Single-ply,SBD,M,
Boys,99.79,1,Levodrick Phillips,Centerville,93.67,231.33,156.49,210.92,598.74,Single-ply,SBD,M,
Boys,99.79,2,Miguel Barron,Chilton,92.49,204.12,145.15,226.8,576.06,Single-ply,SBD,M,
Boys,99.79,3,Lorenzo Robles,Chilton,98.34,195.04,136.08,172.37,503.49,Single-ply,SBD,M,
Boys,99.79,4,Colton Bossie,Chilton,95.21,165.56,113.4,197.31,476.27,Single-ply,SBD,M,
Boys,99.79,5,Sonny VanKampen,Jewett Leon,98.88,142.88,90.72,149.69,383.29,Single-ply,SBD,M,
Boys,99.79,6,Elijah Beechum,Chilton,93.62,108.86,86.18,136.08,331.12,Single-ply,SBD,M,
Boys,109.77,1,Omar Lopez,Madisonville,105.19,204.12,106.59,215.46,526.17,Single-ply,SBD,M,
Boys,109.77,2,Audreas Gibson,Hearne,107.09,183.7,117.93,190.51,492.15,Single-ply,SBD,M,
Boys,109.77,3,Armondo Polanco,Madisonville,101.97,192.78,115.67,181.44,489.88,Single-ply,SBD,M,
Boys,109.77,4,Jamariyon Benford,Hearne,106.23,172.37,117.93,172.37,462.66,Single-ply,SBD,M,
Boys,109.77,5,Jaxson Swallow,Jewett Leon,108.86,176.9,83.91,156.49,417.3,Single-ply,SBD,M,
Boys,109.77,DQ,Brayden Steele,Chilton,108.05,154.22,,183.7,,Single-ply,SBD,M,
Boys,124.74,1,Jalen Major,Madisonville,121.2,215.46,136.08,199.58,551.11,Single-ply,SBD,M,
Boys,124.74,1,David Guevara,Madisonville,122.02,254.01,131.54,204.12,589.67,Single-ply,SBD,M,
Boys,124.74,DQ,Keith Bohannon,Centerville,122.29,142.88,,,,Single-ply,SBD,M,
Boys,139.71,1,Keaton Crowley,Centerville,127.78,204.12,147.42,192.78,544.31,Single-ply,SBD,M,
