Place,Name,Country,BodyweightKg,WeightClassKg,Squat1Kg,Squat2Kg,Squat3Kg,Best3SquatKg,Bench1Kg,Bench2Kg,Bench3Kg,Best3BenchKg,Deadlift1Kg,Deadlift2Kg,Deadlift3Kg,Best3DeadliftKg,TotalKg,Event,Equipment,Sex,Division,BirthDate
1,Ji Hoon Jeong,South Korea,57.99,59,200,210,215,215,120,125,130,130,210,225,227.5,227.5,572.5,SBD,Raw,M,Open,1995-10-25
2,Chen-Ting Wu,Taiwan,57.49,59,165,175,185,185,110,122.5,-125,122.5,215,-225,225,225,532.5,SBD,Raw,M,Open,1996-10-30
3,Ibnu Ayyub,Brunei,58.47,59,177.5,187.5,192.5,192.5,100,105,-110,105,200,215,-225,215,512.5,SBD,Raw,M,Open,1992-09-14
4,Vijay M,India,57.7,59,175,185,192.5,192.5,115,-125,-125,115,185,197.5,-225,197.5,505,SBD,Raw,M,Open,1994-11-10
5,Khalifa Al Jamahi,Oman,58.38,59,140,150,-155,150,100,110,112.5,112.5,170,190,-200,190,452.5,SBD,Raw,M,Open,1985-05-08
6,Roni Soueid,Lebanon,57.5,59,140,150,160,160,90,100,-107.5,100,-160,-160,160,160,420,SBD,Raw,M,Open,1990-04-08
1,Kasemsand Senumong,Thailand,65.58,66,237.5,248,255.5,255.5,145,150,155,155,283,300,-307.5,300,710.5,SBD,Raw,M,Open,1995-02-20
2,Ahmadreza Babaahmadimilani,Iran,65.82,66,245,250,-257.5,250,137.5,-145,145,145,265,275,282.5,282.5,677.5,SBD,Raw,M,Open,1993-08-08
3,Tatsuya Kawashima,Japan,65.77,66,215,225,-230,225,177.5,185,-191,185,225,-237.5,-237.5,225,635,SBD,Raw,M,Open,1996-01-26
4,Wei Chaai Ong,Singapore,65.43,66,212.5,222.5,227.5,227.5,110,117.5,122.5,122.5,260,272.5,280,280,630,SBD,Raw,M,Open,1995-08-26
5,Eric Smulders,Thailand,65.25,66,210,222.5,230,230,137.5,145,-150,145,245,-260,-260,245,620,SBD,Raw,M,Open,1989-06-21
6,Ching-Lun Lin,Taiwan,65.26,66,192.5,207.5,-215,207.5,130,137.5,,137.5,227.5,237.5,250,250,595,SBD,Raw,M,Open,1991-02-12
7,Hilal.yawya Alkiyum,Oman,65,66,190,200,-202.5,200,145,152.5,-155,152.5,220,240,-260,240,592.5,SBD,Raw,M,Open,1991-07-06
8,Yuta Ito,Japan,65.52,66,180,190,195,195,120,125,-130,125,220,235,245,245,565,SBD,Raw,M,Open,1984-08-23
9,Jihan Wadud,Bangladesh,64.99,66,195,-207.5,207.5,207.5,125,130,-135,130,195,210,222.5,222.5,560,SBD,Raw,M,Open,1996-12-14
10,Suk Joon Yu,South Korea,65.83,66,182.5,192.5,202.5,202.5,95,102.5,107.5,107.5,215,227.5,235,235,545,SBD,Raw,M,Open,1993-11-17
11,Jesus Tolentino Jr,UAE,64.18,66,175,185,-190,185,115,120,125,125,205,220,230,230,540,SBD,Raw,M,Open,1988-06-27
12,Alkhayyat Ali,Kuwait,65.35,66,-175,180,185,185,107.5,115,-117.5,115,215,232.5,-235,232.5,532.5,SBD,Raw,M,Open,1998-06-08
1,Yakov Ionin,Kazakhstan,73.48,74,247.5,257.5,262.5,262.5,170,175,177.5,177.5,272.5,282.5,-287.5,282.5,722.5,SBD,Raw,M,Open,1986-03-13
2,Clinton Lee #1,Singapore,73.72,74,-250,250,260,260,160,167.5,-170,167.5,285,-297.5,-297.5,285,712.5,SBD,Raw,M,Open,1993-03-08
3,Cheng Wen Cheong,Singapore,73.87,74,-225,225,235,235,147.5,155,-157.5,155,-295,-295,295,295,685,SBD,Raw,M,Open,1997-08-03
4,Amir Noorhosseini,Iran,73.6,74,235,242.5,-247.5,242.5,140,145,152.5,152.5,260,267.5,-272.5,267.5,662.5,SBD,Raw,M,Open,1999-05-14
5,Mansour Almarzooqi,UAE,73.96,74,225,235,-245,235,165,172.5,-177.5,172.5,225,237.5,247.5,247.5,655,SBD,Raw,M,Open,1995-02-03
6,Han Pin Yeoh,Malaysia,73.39,74,217.5,-227.5,230,230,150,-157.5,-157.5,150,265,272.5,-280,272.5,652.5,SBD,Raw,M,Open,1989-02-23
7,Shiva Karout,Lebanon,72.15,74,220,232.5,-240,232.5,130,140,150,150,235,247.5,-257.5,247.5,630,SBD,Raw,M,Open,1989-12-26
8,Chi Kwon Jung,South Korea,73.49,74,192.5,200,205,205,135,142.5,147.5,147.5,-260,270,-285,270,622.5,SBD,Raw,M,Open,1994-08-26
9,Joon Hee Kim,South Korea,72.91,74,222.5,-235,-235,222.5,125,-130,130,130,247.5,265,-280,265,617.5,SBD,Raw,M,Open,1997-04-13
10,Ramir Khalilov,Kazakhstan,73.55,74,230,240,-247.5,240,135,145,147.5,147.5,220,-240,,220,607.5,SBD,Raw,M,Open,1998-10-06
11,Salim.aiman Alhasani,Oman,74,74,-190,-195,195,195,145,150,-155,150,200,230,-250,230,575,SBD,Raw,M,Open,1991-11-12
12,Sawrav Roy,Bangladesh,71.84,74,170,177.5,185,185,115,122.5,125,125,-215,225,-232.5,225,535,SBD,Raw,M,Open,1990-07-18
1,Nikolay Zemtsov,Kazakhstan,82.86,83,250,257.5,262.5,262.5,162.5,170,175,175,290,302.5,312.5,312.5,750,SBD,Raw,M,Open,1992-05-19
2,Christophe Ang,Singapore,82.43,83,232.5,245,-250,245,185,192.5,195.5,195.5,277.5,290,-300,290,730.5,SBD,Raw,M,Open,1995-03-05
3,Ali Al-Basseer,Iraq,81.87,83,215,230,245,245,142.5,152.5,157.5,157.5,250,290,305,305,707.5,SBD,Raw,M,Open,1995-03-15
4,Gareth Wong,Singapore,81.93,83,235,-245,-245,235,160,165,170,170,270,280,292.5,292.5,697.5,SBD,Raw,M,Open,1998-04-02
5,Wei-Chun Wu,Taiwan,82.38,83,240,250,257.5,257.5,170,-177.5,180,180,250,260,-265,260,697.5,SBD,Raw,M,Open,1990-05-18
6,Aman Kapyshev,Kazakhstan,82.97,83,260,265,267.5,267.5,160,-170,-170,160,250,-262.5,-272.5,250,677.5,SBD,Raw,M,Open,1987-06-25
7,Geon Moo Kim,South Korea,82.08,83,227.5,240,,240,165,175,-180,175,250,-270,-270,250,665,SBD,Raw,M,Open,1997-12-25
8,Moussa Yehia,Lebanon,82.69,83,220,230,232.5,232.5,107.5,115,117.5,117.5,282.5,302.5,315,315,665,SBD,Raw,M,Open,1989-05-17
9,Ali Alnajdi,Kuwait,82.86,83,210,230,-250,230,165,-172.5,-175,165,230,250,-270,250,645,SBD,Raw,M,Open,1989-06-23
10,Matthew Henry #3,UAE,82.65,83,212.5,222.5,232.5,232.5,120,127.5,135,135,240,255,270,270,637.5,SBD,Raw,M,Open,1989-09-07
11,Yosuke Horiguchi,Japan,82.42,83,210,-230,230,230,170,-172.5,-180,170,200,220,-235,220,620,SBD,Raw,M,Open,1993-04-27
12,Gleb Khayev,Kazakhstan,81.78,83,215,225,-230,225,145,-152.5,155,155,215,225,-232.5,225,605,SBD,Raw,M,Open,1992-05-19
13,Mario Saab,Lebanon,82.36,83,210,-222.5,-222.5,210,125,-132.5,-132.5,125,245,252.5,-260,252.5,587.5,SBD,Raw,M,Open,1995-09-21
1,Mehdi Tahmasebi Boldaji,Iran,92.67,93,270,280,-285,280,190,195,-197.5,195,305,310,-322.5,310,785,SBD,Raw,M,Open,1991-10-25
2,Ryan Kiecker,Thailand,92.02,93,272.5,287.5,300,300,155,165,172.5,172.5,292.5,307.5,-320,307.5,780,SBD,Raw,M,Open,1991-09-04
3,Shimon Tsuruya,Japan,90.35,93,255,267.5,275,275,155,165,-170,165,290,305,320,320,760,SBD,Raw,M,Open,1997-06-24
4,Ghaith Al-Mousa,Iraq,90.26,93,265,275,285,285,175,182.5,-190,182.5,275,290,-302.5,290,757.5,SBD,Raw,M,Open,1997-11-30
5,Masud Mohammed Al,Saudi Arabia,92.38,93,255,270,280,280,145,155,-160,155,292.5,312.5,-327.5,312.5,747.5,SBD,Raw,M,Open,1998-09-17
6,Ulan Anuar,Kazakhstan,92.53,93,250,265,-280,265,150,162.5,-167.5,162.5,250,290,-310,290,717.5,SBD,Raw,M,Open,1993-04-25
7,Askar Turysbekov,Kazakhstan,92.77,93,265,-275,-282.5,265,170,175,-177.5,175,267.5,-275,-275,267.5,707.5,SBD,Raw,M,Open,1991-04-18
8,Naeim Fatahi,Iran,90.81,93,250,-260,-260,250,145,-150,-150,145,300,-307.5,-307.5,300,695,SBD,Raw,M,Open,1999-10-14
9,Ji Soo Lee,South Korea,92.71,93,255,-267.5,267.5,267.5,150,-155,-155,150,255,270,-292.5,270,687.5,SBD,Raw,M,Open,1998-03-01
10,Saio.alkhaitab Alsiyabii,Oman,87.64,93,-245,-245,245,245,150,157.5,-162.5,157.5,250,270,-300,270,672.5,SBD,Raw,M,Open,1998-09-16
11,Kwan Chak Law,Hong Kong,89.25,93,245,-252.5,252.5,252.5,155,-165,,155,-265,265,-292.5,265,672.5,SBD,Raw,M,Open,1993-09-03
12,Tarek El Assi,UAE,91.17,93,235,245,-247.5,245,122.5,132.5,-135,132.5,282.5,295,-305,295,672.5,SBD,Raw,M,Open,1997-01-01
13,Omar Ghura,Syria,92.48,93,215,227.5,-240,227.5,175,-185,-185,175,260,267.5,-277.5,267.5,670,SBD,Raw,M,Open,1998-06-16
14,Abdullah Alqattan,Kuwait,86.51,93,200,210,-220,210,127.5,-132.5,-132.5,127.5,240,-255,-260,240,577.5,SBD,Raw,M,Open,1991-05-29
1,Alireza Rezaei,Iran,104.06,105,300,315,320,320,190,200,-202.5,200,285,295,-300,295,815,SBD,Raw,M,Open,1989-01-07
2,Danil Fedoryak,Kazakhstan,104.44,105,290,-297.5,-297.5,290,185,190,192.5,192.5,-325,325,-335,325,807.5,SBD,Raw,M,Open,1990-06-05
3,Minjbaatar Sainkhuu,Mongolia,104.26,105,275,300,,300,170,177.5,182.5,182.5,305,-320,-320,305,787.5,SBD,Raw,M,Open,1988-07-17
4,Mostafa Yazdani Kachouei,Iran,103.2,105,260,275,282.5,282.5,140,145,147.5,147.5,330,341,-357.5,341,771,SBD,Raw,M,Open,1988-01-21
5,Denis Rybka,Kazakhstan,104.78,105,260,270,277.5,277.5,207.5,218,-225,218,250,-265,-272.5,250,745.5,SBD,Raw,M,Open,1985-05-20
6,Said.mohammed Alsiyabi,Oman,102.12,105,255,270,290,290,160,175,-192.5,175,240,260,272.5,272.5,737.5,SBD,Raw,M,Open,1990-11-14
7,Darryl Eugene Tan,Singapore,103.24,105,247.5,257.5,262.5,262.5,167.5,177.5,-182.5,177.5,277.5,292.5,-300,292.5,732.5,SBD,Raw,M,Open,1996-05-27
8,Young Kwon Lee,South Korea,104.61,105,270,-287.5,287.5,287.5,172.5,180,185,185,260,-277.5,-277.5,260,732.5,SBD,Raw,M,Open,1993-08-01
9,Ratul Aditya Parvez,Bangladesh,102.81,105,215,232.5,242.5,242.5,140,150,157.5,157.5,285,305,312.5,312.5,712.5,SBD,Raw,M,Open,1997-05-16
10,Ming Lau,Brunei,102.97,105,245,255,260,260,155,160,162.5,162.5,270,280,290,290,712.5,SBD,Raw,M,Open,1998-06-16
11,Naoaki Hayashi,Japan,103.96,105,232.5,-245,245,245,155,-165,165,165,285,300,-307.5,300,710,SBD,Raw,M,Open,1991-07-07
12,Uvindu U.jayasingha,Sri Lanka,103.34,105,255,265,-270,265,160,-170,-170,160,280,-290,-290,280,705,SBD,Raw,M,Open,1996-05-19
13,Abdullah Haj Hussin Haj Hussin,UAE,104.15,105,230,237.5,,237.5,185,192.5,-195,192.5,250,-260,,250,680,SBD,Raw,M,Open,1992-05-01
14,Sen Samuel Shee Dao,Singapore,104.12,105,210,217.5,222.5,222.5,165,170,172.5,172.5,260,267.5,275,275,670,SBD,Raw,M,Open,1997-12-22
15,Matthew Hobeiche,Lebanon,103.96,105,235,-245,245,245,110,117.5,122.5,122.5,265,275,280,280,647.5,SBD,Raw,M,Open,1994-05-02
16,Bara Baw,Saudi Arabia,96.55,105,215,220,225,225,155,165,167.5,167.5,-237.5,240,247.5,247.5,640,SBD,Raw,M,Open,1995-01-02
17,Faisal Alshammari,Kuwait,103.69,105,180,187.5,195,195,167.5,175,182.5,182.5,230,242.5,255,255,632.5,SBD,Raw,M,Open,1989-03-11
1,Wen-Shuo Yang,Taiwan,118.9,120,270,280,290,290,205,212.5,222.5,222.5,280,290,297.5,297.5,810,SBD,Raw,M,Open,1994-09-24
2,Taiki Yamakawa,Japan,120,120,275,290,300,300,170,180,185,185,280,297.5,315,315,800,SBD,Raw,M,Open,1996-05-23
3,Mohammad Altarkeet,Kuwait,118.33,120,-290,290,,290,192.5,-197.5,,192.5,315,-325,,315,797.5,SBD,Raw,M,Open,1989-11-07
4,Wardi Nasser Al,Bahrain,118,120,-300,300,-312.5,300,187.5,192.5,-195,192.5,270,285,290,290,782.5,SBD,Raw,M,Open,1991-06-15
5,Andrey Beloslubtsev,Kazakhstan,110.57,120,292.5,300,305,305,162.5,167.5,170,170,285,295,-300,295,770,SBD,Raw,M,Open,1992-01-01
6,Dmitriy Radchenko,Kazakhstan,107.25,120,250,265,275,275,180,187.5,-192.5,187.5,270,-285,-285,270,732.5,SBD,Raw,M,Open,1997-08-10
7,Ransilu R.jayathilaka,Sri Lanka,119.56,120,-245,245,255,255,130,140,,140,305,317.5,320,320,715,SBD,Raw,M,Open,1986-01-01
8,Jae Hyuk Huh,South Korea,112.81,120,232.5,245,255,255,200,210,220,220,215,225,-240,225,700,SBD,Raw,M,Open,1998-03-06
9,Marco Cipolat,UAE,116.7,120,235,247.5,255,255,150,160,167.5,167.5,245,265,277.5,277.5,700,SBD,Raw,M,Open,1987-08-23
10,Anand M,India,113,120,240,250,-257.5,250,150,-160,-160,150,280,-300,-300,280,680,SBD,Raw,M,Open,1995-08-06
1,Mehdi Mafi Gholami,Iran,148.65,120+,340,355,360,360,197.5,200,-202.5,200,315,330,-332.5,330,890,SBD,Raw,M,Open,1982-06-14
2,Chi-Sen Tien,Taiwan,122.97,120+,305,320,330,330,207.5,217.5,-225,217.5,305,315,-320,315,862.5,SBD,Raw,M,Open,1994-03-24
3,James Hetherington,UAE,132.62,120+,317.5,335,347.5,347.5,167.5,177.5,182.5,182.5,307.5,330,-335,330,860,SBD,Raw,M,Open,1995-12-05
4,Nasser Moustafa Abo,Palestine,172.72,120+,-320,330,-345,330,160,-170,-170,160,315,325,342.5,342.5,832.5,SBD,Raw,M,Open,1991-09-23
5,Mashary Alsaeed,Saudi Arabia,158.49,120+,300,312.5,-327.5,312.5,175,-182.5,-182.5,175,315,325,-337.5,325,812.5,SBD,Raw,M,Open,1993-09-15
6,Ali Alqasem,Kuwait,179.36,120+,290,310,-330,310,192.5,-197.5,-197.5,192.5,260,275,287.5,287.5,790,SBD,Raw,M,Open,1996-08-13
7,Prashanthan S.prashanthan,Sri Lanka,153.44,120+,-320,320,-335,320,-170,180,182.5,182.5,265,285,-300,285,787.5,SBD,Raw,M,Open,1995-09-04
8,Gayan Udara J.v,Sri Lanka,140.45,120+,300,-320,325,325,-165,170,-175,170,270,285,-300,285,780,SBD,Raw,M,Open,1993-05-01
1,Alisher Zaitov,Kazakhstan,52.27,53,120,127.5,132.5,132.5,95,100,-105,100,155,160,167.5,167.5,400,SBD,Raw,M,Sub-Juniors,2006-01-01
2,Koshal Jha,India,52.56,53,135,147.5,152.5,152.5,80,-87.5,87.5,87.5,140,150,-160,150,390,SBD,Raw,M,Sub-Juniors,2004-01-20
3,Chun-Hsi Hung,Taiwan,52.51,53,-120,120,-130,120,85,90,-95,90,160,170,-180,170,380,SBD,Raw,M,Sub-Juniors,2007-03-15
4,Denis Gurlyov,Kazakhstan,51.24,53,117.5,125,130,130,85,-87.5,,85,145,155,-165,155,370,SBD,Raw,M,Sub-Juniors,2004-06-18
1,Raiyan Rahman,Bangladesh,57.95,59,162.5,170,180,180,82.5,90,-95,90,185,192.5,202.5,202.5,472.5,SBD,Raw,M,Sub-Juniors,2004-02-17
2,Garav Veer Singh Dhillon,India,58.55,59,142.5,147.5,-150,147.5,92.5,97.5,102.5,102.5,160,-170,170,170,420,SBD,Raw,M,Sub-Juniors,2005-03-14
3,Azat Zeinedelov,Kazakhstan,58.62,59,140,147.5,-152.5,147.5,80,87.5,-92.5,87.5,150,160,-167.5,160,395,SBD,Raw,M,Sub-Juniors,2006-10-25
4,Yong-Kang Lin,Taiwan,57.75,59,145,152.5,-157.5,152.5,65,70,-75,70,145,162.5,-172.5,162.5,385,SBD,Raw,M,Sub-Juniors,2007-07-23
1,Ibrahim Sandogji,Saudi Arabia,64.77,66,170,182.5,-185,182.5,105,117.5,125,125,205,217.5,-230,217.5,525,SBD,Raw,M,Sub-Juniors,2004-01-30
2,Fahad Alghenaim,Bahrain,64.44,66,172.5,177.5,180,180,100,105,-107.5,105,-222.5,230,-235,230,515,SBD,Raw,M,Sub-Juniors,2005-09-10
3,S Mohan Raj,India,64.41,66,152.5,165,-175,165,90,-95,-95,90,190,-205,-215,190,445,SBD,Raw,M,Sub-Juniors,2005-05-18
4,Arrafiu Islam Saad,Bangladesh,63.43,66,142.5,150,-162.5,150,80,87.5,-92.5,87.5,180,192.5,205,205,442.5,SBD,Raw,M,Sub-Juniors,2004-11-05
5,Hasan Al-Tameei,Iraq,59.56,66,-110,110,120,120,92.5,100,-102.5,100,130,140,-145,140,360,SBD,Raw,M,Sub-Juniors,2004-08-20
DQ,Aiden Lee,Singapore,62.23,66,175,-182.5,182.5,182.5,97.5,105,107.5,107.5,-230,-230,-230,,,SBD,Raw,M,Sub-Juniors,2004-07-20
1,Rozmatkhozha Tursynbayev,Kazakhstan,66.96,74,145,155,162.5,162.5,110,117.5,122.5,122.5,180,195,202.5,202.5,487.5,SBD,Raw,M,Sub-Juniors,2005-10-08
2,Khaled Alsager,Kuwait,72.51,74,150,162.5,170,170,100,107.5,110,110,200,207.5,-210,207.5,487.5,SBD,Raw,M,Sub-Juniors,2005-08-08
1,Muslim Haideri,Iraq,80.8,83,200,220,230,230,110,117.5,120,120,242.5,250,-257.5,250,600,SBD,Raw,M,Sub-Juniors,2004-02-16
2,Mohammad Alhajeri,Kuwait,80.1,83,180,190,195,195,-147.5,147.5,-155,147.5,235,242.5,247.5,247.5,590,SBD,Raw,M,Sub-Juniors,2004-08-04
3,Zong Xian Goh,Singapore,82.17,83,185,192.5,-197.5,192.5,137.5,142.5,145,145,240,-250,-255,240,577.5,SBD,Raw,M,Sub-Juniors,2004-10-22
4,Firas Alwahhabi,Saudi Arabia,82.23,83,197.5,210,-215,210,105,112.5,-117.5,112.5,212.5,227.5,237.5,237.5,560,SBD,Raw,M,Sub-Juniors,2004-11-24
5,Yan Kasyan,Kazakhstan,82.8,83,-210,210,217.5,217.5,-120,120,125,125,190,200,-215,200,542.5,SBD,Raw,M,Sub-Juniors,2004-09-08
6,Ting-Yu Kuo,Taiwan,79.1,83,165,-175,175,175,135,140,145,145,185,200,-205,200,520,SBD,Raw,M,Sub-Juniors,2005-06-22
7,Motoki Suzuki,Japan,82.02,83,170,180,185,185,100,110,-115,110,190,-205,-205,190,485,SBD,Raw,M,Sub-Juniors,2004-08-12
8,Nurali Zhansay,Kazakhstan,82.1,83,130,-140,,130,150,157.5,162.5,162.5,177.5,190,-200,190,482.5,SBD,Raw,M,Sub-Juniors,2005-09-21
9,Danil Vizirov,Kazakhstan,77.04,83,122.5,132.5,-140,132.5,-82.5,82.5,-85,82.5,120,,,120,335,SBD,Raw,M,Sub-Juniors,2007-12-07
1,Jing Yi Low,Singapore,91.9,93,230,237.5,-240.5,237.5,120,125,-127.5,125,281,296,311,311,673.5,SBD,Raw,M,Sub-Juniors,2004-03-12
2,Musab Alessa,Saudi Arabia,91.29,93,220,230,240,240,120,125,-130,125,250,262.5,-267.5,262.5,627.5,SBD,Raw,M,Sub-Juniors,2005-01-11
3,Da-Xin He,Taiwan,91.47,93,210,220,-225,220,122.5,127.5,132.5,132.5,235,245,255,255,607.5,SBD,Raw,M,Sub-Juniors,2004-02-11
4,Carlos Bienvenito Janorabon,Philippines,91.51,93,-210,210,220,220,117.5,-125,125,125,225,-237.5,-247.5,225,570,SBD,Raw,M,Sub-Juniors,2005-03-08
5,Abdulmohsen Dashti,Kuwait,90.74,93,180,190,195,195,110,-117.5,-117.5,110,210,225,240,240,545,SBD,Raw,M,Sub-Juniors,2005-02-20
6,Louis Audibert,Thailand,91.83,93,170,185,192.5,192.5,110,115,-117.5,115,215,225,237.5,237.5,545,SBD,Raw,M,Sub-Juniors,2005-05-02
7,Ivan Mikhlik,Kazakhstan,89.6,93,190,197.5,-210,197.5,117.5,122.5,125,125,200,-210,,200,522.5,SBD,Raw,M,Sub-Juniors,2005-05-29
DQ,Jin Ho Kim,South Korea,90.06,93,170,180,190,190,107.5,115,120,120,-180,-190,-190,,,SBD,Raw,M,Sub-Juniors,2006-03-29
1,John Endoso,UAE,104.65,105,270.5,285.5,300.5,300.5,137.5,147.5,155,155,242.5,260,-275,260,715.5,SBD,Raw,M,Sub-Juniors,2005-07-03
2,Lankston Ong,Singapore,98.63,105,230,245,-252.5,245,132.5,140,-145,140,280.5,300.5,305,305,690,SBD,Raw,M,Sub-Juniors,2004-09-15
3,Wayne Chong,Singapore,101.9,105,245,257.5,262.5,262.5,142.5,150,-157.5,150,245,255,265,265,677.5,SBD,Raw,M,Sub-Juniors,2004-03-09
4,Abbas Al-Abedi,Iraq,103.61,105,235,-250,255,255,140,152.5,-157.5,152.5,240,250,-262.5,250,657.5,SBD,Raw,M,Sub-Juniors,2004-11-20
5,Ali Alnaqbi,UAE,103.8,105,40,50,-70,50,35,-40,-42.5,35,80,90,100,100,185,SBD,Raw,M,Sub-Juniors,2008-01-01
1,Zeidan Youssef,Malaysia,117.14,120,240,-250,255,255,135,137.5,145,145,232.5,-245,255,255,655,SBD,Raw,M,Sub-Juniors,2005-02-16
2,Mustafa Al-Ghuraibawi,Iraq,117.2,120,230,-242.5,242.5,242.5,125,135,145,145,220,235,242.5,242.5,630,SBD,Raw,M,Sub-Juniors,2004-04-12
3,Joshua Tan,Singapore,116.45,120,230,242.5,-252.5,242.5,130,137.5,-142.5,137.5,230,245,-250,245,625,SBD,Raw,M,Sub-Juniors,2004-08-13
1,Muslim Aldblawy,Iraq,170.51,120+,270,300,305,305,120,130,-137.5,130,230,240,252.5,252.5,687.5,SBD,Raw,M,Sub-Juniors,2004-11-04
2,Gleb Semak,Kazakhstan,138.41,120+,230,250,270,270,130,-137.5,-137.5,130,210,230,-250,230,630,SBD,Raw,M,Sub-Juniors,2004-09-21
3,Seyedmatin Mahmoudzadehsistani,Iran,145.9,120+,165,187.5,210,210,60,90,-112.5,90,165,200,222.5,222.5,522.5,SBD,Raw,M,Sub-Juniors,2005-09-13
1,Aeron Paul Casamayor,Philippines,51.39,53,150,160,167.5,167.5,80,87.5,90,90,195,210,220,220,477.5,SBD,Raw,M,Juniors,1999-12-18
2,Igilik Yerlan,Kazakhstan,52.51,53,100,110,115,115,-90,90,95,95,110,120,130,130,340,SBD,Raw,M,Juniors,2001-01-05
1,Kyosuke Yoshioka,Japan,56.73,59,-195,195,-207.5,195,137.5,145,-148,145,200,210,225,225,565,SBD,Raw,M,Juniors,1999-03-12
2,Kuan-Chung Chen,Taiwan,57.27,59,172.5,180,-185,180,110,117.5,120,120,-200,-200,200,200,500,SBD,Raw,M,Juniors,2001-02-07
3,Diyaz Mukhamedin,Kazakhstan,58.61,59,180,190,-195,190,110,117.5,122.5,122.5,170,175,182.5,182.5,495,SBD,Raw,M,Juniors,2001-08-06
4,Mohammad Alqattan,Kuwait,56.88,59,150,160,-165,160,115,122.5,-125,122.5,175,187.5,190,190,472.5,SBD,Raw,M,Juniors,2000-02-25
5,Salimalazhar Banoraba,Oman,56.36,59,140,155,-172.5,155,105,117.5,-122.5,117.5,150,175,187.5,187.5,460,SBD,Raw,M,Juniors,1999-09-01
1,Tristan Ho,Singapore,64.79,66,210,-222.5,222.5,222.5,-145,145,152.5,152.5,230,245,260,260,635,SBD,Raw,M,Juniors,2002-03-14
2,Ramzi Alomari,Iraq,64.9,66,170,185,-192.5,185,150,160,170,170,220,240,-245,240,595,SBD,Raw,M,Juniors,2001-01-01
3,Samuel Kwan,Singapore,65.48,66,180,192.5,200,200,135,140,147.5,147.5,215,230,247.5,247.5,595,SBD,Raw,M,Juniors,2002-03-15
4,Yuji Murata,Japan,64.95,66,190,202.5,207.5,207.5,135,142.5,147.5,147.5,215,-232.5,-242.5,215,570,SBD,Raw,M,Juniors,1999-06-24
5,Yu-Cheng Wang,Taiwan,65.14,66,190,202.5,207.5,207.5,105,115,-122.5,115,225,235,242.5,242.5,565,SBD,Raw,M,Juniors,2001-09-10
6,Kanatbek Toktobolotov,Kyrgyzstan,65.1,66,180,-190,190,190,120,-127.5,-127.5,120,200,210,-222.5,210,520,SBD,Raw,M,Juniors,1999-10-05
7,Tsz Lik Leung,Hong Kong,63.39,66,165,182.5,-190,182.5,107.5,117.5,120,120,180,200,212.5,212.5,515,SBD,Raw,M,Juniors,1999-09-27
8,Kang Yun Kim,South Korea,64.63,66,160,165,170,170,135,-140,-145,135,200,210,-215,210,515,SBD,Raw,M,Juniors,2001-01-15
9,Abdurakhman Abdurashidov,Kazakhstan,65.75,66,155,165,170,170,-130,130,-142.5,130,185,195,-205,195,495,SBD,Raw,M,Juniors,2003-01-19
10,Intouch Kaewchai,Thailand,62.2,66,167.5,175,-180,175,92.5,-100,-100,92.5,202.5,-212.5,212.5,212.5,480,SBD,Raw,M,Juniors,1999-02-27
11,Ch Lokesh,India,64.85,66,160,-170,170,170,100,-105,105,105,190,200,-210,200,475,SBD,Raw,M,Juniors,2000-02-12
12,Naktal Majeed,Iraq,61.69,66,155,157.5,170,170,100,105,107.5,107.5,190,-200,-200,190,467.5,SBD,Raw,M,Juniors,2002-11-25
1,Aren Joy Fernandes,India,74,74,227.5,240,-248.5,240,132.5,140,145,145,292.5,309,-315,309,694,SBD,Raw,M,Juniors,2001-09-14
2,Yu-Jui Cheng,Taiwan,73.27,74,230,248,255,255,125,135,142.5,142.5,250,262.5,275,275,672.5,SBD,Raw,M,Juniors,1999-03-26
3,Ziyad Alzahrani,Saudi Arabia,73.92,74,210,222.5,227.5,227.5,155,-160,-160,155,255,265,,265,647.5,SBD,Raw,M,Juniors,2000-12-28
4,Vadim Plakhotnikov,Kazakhstan,72.31,74,220,232.5,240,240,140,145,-147.5,145,260,-275,-275,260,645,SBD,Raw,M,Juniors,2003-07-18
5,Sean Por,Singapore,72.26,74,210,220,225,225,140,147.5,-152.5,147.5,260,270,-275,270,642.5,SBD,Raw,M,Juniors,2000-04-08
6,Vladimir Malyshev,Kazakhstan,73.34,74,205,215,-220,215,145,152.5,155,155,230,240,245,245,615,SBD,Raw,M,Juniors,2000-11-27
7,Hassan Johari,Saudi Arabia,73.78,74,210,220,227.5,227.5,140,145,150,150,232.5,237.5,-242.5,237.5,615,SBD,Raw,M,Juniors,1999-01-21
8,Mayed Alredha,UAE,73.73,74,190,200,205,205,162.5,168,170.5,170.5,185,200,210,210,585.5,SBD,Raw,M,Juniors,2001-09-13
9,Artem Tarada,Kazakhstan,73.81,74,210,-217.5,217.5,217.5,152.5,-155,155,155,210,-220,,210,582.5,SBD,Raw,M,Juniors,2001-02-12
10,Bader Abul,Kuwait,73.97,74,185,192.5,195,195,130,137.5,140,140,220,-235,235,235,570,SBD,Raw,M,Juniors,2003-12-22
11,Nursultan Makhantayev,Kazakhstan,73.96,74,200,207.5,-210,207.5,132.5,-137.5,-137.5,132.5,215,-222.5,-222.5,215,555,SBD,Raw,M,Juniors,2000-08-15
12,Tahir Syed Amirul Haziq Bin Syed Mohd,Malaysia,73.28,74,197.5,207.5,-215,207.5,117.5,122.5,-125,122.5,222.5,-235,-235,222.5,552.5,SBD,Raw,M,Juniors,1999-02-22
13,Muntaka Ali Ibran Tasin,Bangladesh,72.89,74,185,192.5,-202.5,192.5,90,97.5,-102.5,97.5,240,255,-267.5,255,545,SBD,Raw,M,Juniors,2000-04-21
14,Ho Jordan Lau Ka,Hong Kong,71.4,74,155,165,175,175,80,87.5,92.5,92.5,225,-237.5,-237.5,225,492.5,SBD,Raw,M,Juniors,2000-01-31
1,Redha Al-Sarray,Iraq,82.87,83,250,265,272.5,272.5,145,155,-157.5,155,270,280,287.5,287.5,715,SBD,Raw,M,Juniors,2001-12-04
2,Nigel Ng,Singapore,81.78,83,242.5,255,260,260,160,167.5,-174,167.5,267.5,277.5,285,285,712.5,SBD,Raw,M,Juniors,2003-03-04
3,Abdulrahman AlShayji,Kuwait,81.23,83,227.5,242.5,250,250,152.5,162.5,170,170,247.5,265,280,280,700,SBD,Raw,M,Juniors,1999-01-26
4,Ren Ishii,Japan,83,83,232.5,245,250,250,150,160,-165,160,275,290,-306,290,700,SBD,Raw,M,Juniors,1999-05-21
5,Saleh Shetewi,Saudi Arabia,82.76,83,235,250,-257.5,250,147.5,152.5,-157.5,152.5,252.5,265,-290,265,667.5,SBD,Raw,M,Juniors,1999-08-29
6,Jackson Miller,Japan,82.81,83,-210,220,-230,220,132.5,140,145,145,265,280,290,290,655,SBD,Raw,M,Juniors,2000-03-22
7,Abdulrahman Almarshad,Saudi Arabia,80.88,83,215,225,230,230,127.5,132.5,,132.5,255,265,275,275,637.5,SBD,Raw,M,Juniors,2001-05-02
8,Matrix Neo,Singapore,79.97,83,215,222.5,230,230,147.5,155,-160,155,250,-262.5,-262.5,250,635,SBD,Raw,M,Juniors,2003-05-15
9,Johan Timothy Chan,Philippines,82.99,83,205,212.5,-217.5,212.5,135,140,-145,140,280,-295,-295,280,632.5,SBD,Raw,M,Juniors,1999-05-10
10,Moosamohammed Auladthani,Oman,81.69,83,195,205,210,210,115,125,-135,125,240,270,-285,270,605,SBD,Raw,M,Juniors,2000-08-12
1,Woei Jin Seah,Singapore,88.05,93,227.5,235,242.5,242.5,150,157.5,162.5,162.5,265,280,-290,280,685,SBD,Raw,M,Juniors,2000-02-11
2,Rintaro Okano,Japan,92.18,93,235,250,257.5,257.5,132.5,140,145,145,265,-280,-290,265,667.5,SBD,Raw,M,Juniors,2000-02-03
3,Khaled Farroukh,UAE,92.66,93,200,-215,217.5,217.5,135,145,152.5,152.5,257.5,277.5,282.5,282.5,652.5,SBD,Raw,M,Juniors,2003-09-29
4,Ezzeldeen Shehab,Lebanon,91.76,93,245,-255,255,255,140,-145,145,145,235,250,-255,250,650,SBD,Raw,M,Juniors,2002-11-26
5,Abdeljabbarn Sskaik,Palestine,88.88,93,200,215,-227.5,215,150,157.5,-160,157.5,245,260,270,270,642.5,SBD,Raw,M,Juniors,2001-01-04
6,Mehdi Javadfar,Iran,91.56,93,220,-225,-225,220,130,135,-140,135,265,-270,-277.5,265,620,SBD,Raw,M,Juniors,2002-01-01
7,Rahat Hussain Rohan,Bangladesh,92.19,93,205,-217.5,-220,205,130,137.5,-142.5,137.5,260,267.5,-275,267.5,610,SBD,Raw,M,Juniors,2003-09-06
8,Mohammed Aljeraisy,Saudi Arabia,90.57,93,215,227.5,232.5,232.5,127.5,135,-137.5,135,235,-247.5,,235,602.5,SBD,Raw,M,Juniors,2001-05-05
9,Ali Almaazmi,UAE,86.51,93,-160,-160,160,160,135,140,,140,235,-250,-260,235,535,SBD,Raw,M,Juniors,2001-07-25
DQ,Atikur Rahman Sifat Md,Bangladesh,86.65,93,-252.5,-252.5,-252.5,,120,127.5,-132.5,127.5,210,-217.5,,210,,SBD,Raw,M,Juniors,1999-12-23
1,Cen Hao Loh,Malaysia,104.48,105,260,275,290,290,162.5,172.5,177.5,177.5,285,300,-311,300,767.5,SBD,Raw,M,Juniors,1999-04-20
2,Yousif Omar,Iraq,102.19,105,250,265,272.5,272.5,-175,180,187.5,187.5,255,265,-282.5,265,725,SBD,Raw,M,Juniors,1999-01-06
3,Rustam Valiullin,Kazakhstan,102.83,105,240,245,-250,245,165,-172.5,-172.5,165,220,235,-240,235,645,SBD,Raw,M,Juniors,2000-08-23
4,Moritz Langwallner,Singapore,100.87,105,205,210,215,215,135,140,145,145,255,267.5,-280,267.5,627.5,SBD,Raw,M,Juniors,2002-04-12
1,Yi-Chiu Wu,Taiwan,119.6,120,290,305,320,320,150,167.5,177.5,177.5,310.5,325,333,333,830.5,SBD,Raw,M,Juniors,2000-07-07
2,Khalid.nasser Alsiyabi,Oman,118.9,120,250,-260,-260,250,145,-155,155,155,220,240,-260,240,645,SBD,Raw,M,Juniors,2000-04-07
3,Zachary Gan,Singapore,105.7,120,180,190,-195,190,122.5,130,132.5,132.5,210,230,-240,230,552.5,SBD,Raw,M,Juniors,1999-09-15
4,Muhammad-Ali Mirzoev,Tajikistan,108.5,120,-120,120,,120,180,192.5,-197.5,192.5,-120,120,,120,432.5,SBD,Raw,M,Juniors,1999-05-01
1,Chaer Etienne El,Lebanon,121.89,120+,275,290,295,295,180,190,197.5,197.5,315,338.5,-351.5,338.5,831,SBD,Raw,M,Juniors,2000-02-11
2,Abddallah Fadel,Syria,124.91,120+,270,287.5,295,295,175,-187.5,-192.5,175,310,338,-351,338,808,SBD,Raw,M,Juniors,1999-03-05
3,Karaan Paul Al,Lebanon,137.26,120+,205,215,225,225,-125,125,130,130,240,-242.5,-250,240,595,SBD,Raw,M,Juniors,2003-12-31
4,Abdullah Alhammadi #2,UAE,160.81,120+,120,140,150,150,-120,120,-140,120,220,235,-252.5,235,505,SBD,Raw,M,Juniors,2002-12-19
1,Jackie Chan,Brunei,64.31,66,180,185,187.5,187.5,100,105,-107.5,105,200,210,-215,210,502.5,SBD,Raw,M,Masters 1,1976-12-02
2,Kairat Ichshanov,Kazakhstan,65.18,66,160,170,177.5,177.5,115,122.5,-127.5,122.5,185,197.5,-207.5,197.5,497.5,SBD,Raw,M,Masters 1,1978-01-01
3,Aidyn Elemesov,Kazakhstan,64.15,66,110,120,125,125,75,82.5,85,85,120,130,135,135,345,SBD,Raw,M,Masters 1,1979-07-19
1,Ehsan Zirak,Iran,73.11,74,165,167.5,172.5,172.5,120,130,-132.5,130,210,217.5,-220,217.5,520,SBD,Raw,M,Masters 1,1981-05-18
2,Aminolah Baghlani,Iran,74,74,-180,180,185,185,75,85,95,95,220,232.5,-242.5,232.5,512.5,SBD,Raw,M,Masters 1,1982-02-06
3,Amir Reza Mesforoosh,Iran,73.76,74,145,155,160,160,130,135,137.5,137.5,180,195,202.5,202.5,500,SBD,Raw,M,Masters 1,1980-07-22
4,Taher Naser,Iraq,73.32,74,160,175,182.5,182.5,-100,-105,105,105,200,207.5,-212.5,207.5,495,SBD,Raw,M,Masters 1,1973-07-01
5,Alyeksandr Tserensodnom,Mongolia,71.94,74,155,-165,-170,155,110,117.5,122.5,122.5,-155,-170,170,170,447.5,SBD,Raw,M,Masters 1,1973-11-10
6,Reza Mostafaeinezhad,Iran,73.52,74,150,160,-165,160,85,95,-100,95,-160,160,-180,160,415,SBD,Raw,M,Masters 1,1980-02-25
1,Kuo Hsuan Huang,Taiwan,79.87,83,210,220,-230,220,160,165,-172.5,165,271,-280,-280,271,656,SBD,Raw,M,Masters 1,1980-06-06
2,Atta Wadi,Palestine,82.69,83,180,195,205,205,120,140,-147.5,140,-220,225,-240,225,570,SBD,Raw,M,Masters 1,1982-10-10
3,Chandana C.thilakarathna,Sri Lanka,82.66,83,177.5,182.5,185,185,95,100,-102.5,100,210,212.5,217.5,217.5,502.5,SBD,Raw,M,Masters 1,1975-02-12
4,Abootaleb Farahmand,Iran,82.67,83,170,182.5,-187.5,182.5,110,117.5,125,125,180,190,-197.5,190,497.5,SBD,Raw,M,Masters 1,1981-01-01
5,Jabar Mansour,UAE,81.47,83,150,160,170,170,-95,95,100,100,210,220,225,225,495,SBD,Raw,M,Masters 1,1975-01-01
6,Moghadam Rasol Gholami,Iran,82.4,83,140,155,-165,155,110,122.5,135,135,170,192.5,-212.5,192.5,482.5,SBD,Raw,M,Masters 1,1974-09-22
7,Yohei Yamada,Japan,82.55,83,150,160,-165,160,120,125,127.5,127.5,180,190,-195,190,477.5,SBD,Raw,M,Masters 1,1978-06-20
8,Atul Jhavar,Singapore,78.1,83,140,150,,150,90,-100,-100,90,175,190,200,200,440,SBD,Raw,M,Masters 1,1982-11-08
9,Badr Alali,UAE,82.28,83,120,125,-130,125,130,132.5,137.5,137.5,130,132.5,135,135,397.5,SBD,Raw,M,Masters 1,1980-02-09
1,Viktor Dak,Kazakhstan,91.75,93,240,255,-262.5,255,165,172.5,175,175,240,255,-270,255,685,SBD,Raw,M,Masters 1,1975-11-04
2,Fernando Hiran G.h.j,Sri Lanka,91.87,93,230,-240,242.5,242.5,125,-130,-130,125,210,220,230,230,597.5,SBD,Raw,M,Masters 1,1975-08-06
3,Mohammed Alkaabi,UAE,90.91,93,190,-202.5,202.5,202.5,145,155,160,160,212.5,217.5,-235,217.5,580,SBD,Raw,M,Masters 1,1982-02-02
4,Mohammadreza Rohani,Iran,88.24,93,180,,-192.5,180,110,122.5,130,130,240,252.5,260,260,570,SBD,Raw,M,Masters 1,1977-07-24
5,Ebrahim Nikfar,Iran,91.5,93,185,195,202.5,202.5,110,120,-127.5,120,220,230,-235,230,552.5,SBD,Raw,M,Masters 1,1974-03-09
1,Mohammed Alkhanbouli,UAE,101.8,105,-255,255,-270,255,170,177.5,-182.5,177.5,305,-317.5,-317.5,305,737.5,SBD,Raw,M,Masters 1,1980-08-08
2,Mohammed Mahdi,Iraq,101.39,105,250,270,285,285,165,175,180,180,250,-275,-275,250,715,SBD,Raw,M,Masters 1,1980-08-30
3,Mehdi Dolatshahi,Iran,103.36,105,225,235,245,245,150,160,-167.5,160,245,255,265,265,670,SBD,Raw,M,Masters 1,1981-09-21
4,Farid Jahanipour,Iran,104.38,105,220,-230,230,230,160,165,-167.5,165,220,240,-257.5,240,635,SBD,Raw,M,Masters 1,1981-06-22
5,Enkhnasan Purevjav,Mongolia,98.17,105,200,210,-215,210,175,182.5,190,190,-190,200,,200,600,SBD,Raw,M,Masters 1,1982-04-17
6,Hossein Zangiabadizadeh,Iran,102.77,105,200,202.5,225,225,120,-122.5,-145,120,225,235,-245,235,580,SBD,Raw,M,Masters 1,1976-08-23
7,Yoichi Sasaki,Japan,93.04,105,195,205,217.5,217.5,115,125,-130,125,200,210,225,225,567.5,SBD,Raw,M,Masters 1,1976-07-14
8,Charif Rabah,Lebanon,100.77,105,175,185,190,190,140,150,-155,150,200,215,-225,215,555,SBD,Raw,M,Masters 1,1974-06-27
DQ,Abbas Islamibabaheidari,Iran,103.11,105,-230,-245,-245,,130,140,147.5,147.5,220,230,-255,230,,SBD,Raw,M,Masters 1,1980-05-30
DQ,Gholamreza Bagherzadeh,Iran,103.77,105,235,237.5,247.5,247.5,-155,-155,-155,,220,235,-257.5,235,,SBD,Raw,M,Masters 1,1973-12-29
1,Abolfazl Ketabifard,Iran,116.22,120,250,270,280,280,160,175,177.5,177.5,260,280,-290,280,737.5,SBD,Raw,M,Masters 1,1982-05-07
2,Hadi Talkhabi,Iran,117.85,120,200,-230,252.5,252.5,150,160,162.5,162.5,270,-280,-285,270,685,SBD,Raw,M,Masters 1,1977-09-21
3,Wellam Tajjor,Syria,112.5,120,210,230,250,250,140,-145,-145,140,190,215,225,225,615,SBD,Raw,M,Masters 1,1982-06-11
4,Yousef Shahwan,Palestine,105.9,120,180,190,-207.5,190,135,145,-152.5,145,190,210,-225,210,545,SBD,Raw,M,Masters 1,1979-11-20
5,Ride Al-Ghalibi,Iraq,110.7,120,190,-205,205,205,120,130,-135,130,200,-210,-215,200,535,SBD,Raw,M,Masters 1,1978-03-29
1,Hamad Al Ajmi,UAE,136.53,120+,260,267.5,-272.5,267.5,180,187.5,-190,187.5,230,240,-245,240,695,SBD,Raw,M,Masters 1,1977-11-07
2,Javad Javadifar,Iran,120.1,120+,265,-280.5,-280.5,265,160,167.5,170,170,180,215,235,235,670,SBD,Raw,M,Masters 1,1976-09-21
3,Yevgeniy Yermyshev,Kazakhstan,127.08,120+,220,-230,-230,220,200,-205,-205,200,220,232.5,-237.5,232.5,652.5,SBD,Raw,M,Masters 1,1978-01-01
4,Shaifulizzam Rouse,Singapore,124.53,120+,207.5,217.5,-225,217.5,122.5,-130,130,130,235,250,-252.5,250,597.5,SBD,Raw,M,Masters 1,1975-10-22
5,Jaafar Al-Tameemi,Iraq,134.59,120+,-175,180,-210,180,80,,,80,110,,,110,370,SBD,Raw,M,Masters 1,1978-01-25
1,Adlei Alassar,Palestine,73.43,74,-150,150,165,165,110,112.5,-115,112.5,190,-200,200,200,477.5,SBD,Raw,M,Masters 2,1970-06-13
2,Amarsanaa Khuujii,Mongolia,73.2,74,160,170,,170,125,130,,130,145,155,-165,155,455,SBD,Raw,M,Masters 2,1972-10-16
3,Morad Aedi,Iran,73.88,74,-90,90,110,110,110,-120,120,120,100,125,-135,125,355,SBD,Raw,M,Masters 2,1972-10-23
1,Alimbek Rakhimov,Kyrgyzstan,82.43,83,180,190,200,200,140,145,-150,145,200,210,220,220,565,SBD,Raw,M,Masters 2,1966-06-10
2,Junichi Yokogi,Singapore,81.67,83,172.5,-182.5,182.5,182.5,127.5,135,140,140,190,205,212.5,212.5,535,SBD,Raw,M,Masters 2,1967-07-21
3,Vladimir Shkirman,Kazakhstan,78.02,83,160,-180,180,180,100,105,,105,200,220,-250,220,505,SBD,Raw,M,Masters 2,1964-04-21
4,Mohammad Bagher Ghanadtoosi,Iran,82.33,83,135,145,157.5,157.5,115,125,-137.5,125,155,167.5,-180,167.5,450,SBD,Raw,M,Masters 2,1971-03-30
1,Javad Heidari,Iran,89.67,93,200,210,-215,210,135,140,145,145,195,202.5,-222.5,202.5,557.5,SBD,Raw,M,Masters 2,1971-03-22
2,Konstantin Khardin,Uzbekistan,88.74,93,150,160,170,170,90,102.5,107.5,107.5,175,195,220,220,497.5,SBD,Raw,M,Masters 2,1968-06-07
3,Karbassi Monzavi,Kazakhstan,91.8,93,100,-110,-120,100,80,92.5,-105,92.5,140,155,-170,155,347.5,SBD,Raw,M,Masters 2,1964-06-12
1,Yevgeniy Nefedov,Kazakhstan,103.8,105,240,260,-270,260,170,180,-185,180,265,275,,275,715,SBD,Raw,M,Masters 2,1972-01-01
2,Kairat Bekov,Kazakhstan,103.65,105,160,172.5,-180,172.5,135,145,152.5,152.5,180,195,-210,195,520,SBD,Raw,M,Masters 2,1971-03-31
3,Ali Samer Al,Syria,103.82,105,140,152.5,160,160,100,105,-107.5,105,160,170,177.5,177.5,442.5,SBD,Raw,M,Masters 2,1970-11-02
4,Hossein Pakdaman,Iran,93.22,105,100,120,-140,120,85,105,-120,105,110,130,-170,130,355,SBD,Raw,M,Masters 2,1968-06-02
1,Murat Jaitabarov,Kazakhstan,109.27,120,180,200,225.5,225.5,157.5,162.5,170,170,200,-220,225,225,620.5,SBD,Raw,M,Masters 2,1963-01-01
2,Oday Al-Janabi,Iraq,106.7,120,125,140,-155,140,110,122.5,132.5,132.5,-140,140,-170,140,412.5,SBD,Raw,M,Masters 2,1966-07-12
3,Ziad Mohamad,Syria,111.4,120,90,130,-150,130,105,-112.5,-112.5,105,120,150,172.5,172.5,407.5,SBD,Raw,M,Masters 2,1972-07-20
1,Bayarkhuu Tserendamba,Mongolia,126.73,120+,160,175,190,190,155,165,170,170,195,210,230,230,590,SBD,Raw,M,Masters 2,1971-05-10
2,Martin Schweiger,Singapore,129.14,120+,195,202.5,210,210,137.5,147.5,155,155,205,212.5,-222.5,212.5,577.5,SBD,Raw,M,Masters 2,1965-01-22
1,Manikuttan Purushothaman,UAE,81.46,83,-145,145,147.5,147.5,80,92.5,97.5,97.5,167.5,177.5,185,185,430,SBD,Raw,M,Masters 3,1962-05-30
2,Kadyrkul Umbetalin,Kazakhstan,79.8,83,140,145,,145,105,-110,-110,105,165,-175,-180,165,415,SBD,Raw,M,Masters 3,1958-01-01
3,Ka Po Wang Gable,Hong Kong,76.78,83,70,80,90,90,70,-85,90,90,100,120,130,130,310,SBD,Raw,M,Masters 3,1959-01-06
4,Saibal Sengupta,India,79.1,83,65,75,85,85,50,60,-65,60,80,90,92.5,92.5,237.5,SBD,Raw,M,Masters 3,1957-11-25
5,Mohammad Hassan,UAE,78.96,83,-25,25,-27.5,25,70,77.5,-87.5,77.5,60,,,60,162.5,SBD,Raw,M,Masters 3,1955-01-01
1,Sanjiv Razdan,India,90.38,93,150,160,165,165,110,120,-127.5,120,150,165,172.5,172.5,457.5,SBD,Raw,M,Masters 3,1960-11-13
2,Morteza Dezhalood,Iran,90.72,93,100,110,120,120,85,95,100,100,125,140,150,150,370,SBD,Raw,M,Masters 3,1959-01-01
3,Aliheidar Omidian,Iran,90.76,93,70,90,-95,90,80,90,95,95,90,115,142.5,142.5,327.5,SBD,Raw,M,Masters 3,1953-10-01
1,Bakyt Kerimbekov,Kyrgyzstan,101.69,105,190,205,213,213,156,160,165,165,190,206,211,211,589,SBD,Raw,M,Masters 3,1961-07-07
2,Kazuyoshi Kozai,Japan,94.6,105,175,182.5,190,190,115,-122.5,-122.5,115,190,-200,200,200,505,SBD,Raw,M,Masters 3,1956-10-27
1,Paul Levine,Thailand,125.32,120+,120,-140,-140,120,110,117.5,122.5,122.5,160,180,-200,180,422.5,SBD,Raw,M,Masters 3,1962-02-24
1,Kim-Won Pok,Hong Kong,49.38,59,45,55,-60,55,40,-45,,40,70,85,100,100,195,SBD,Raw,M,Masters 4,1940-10-05
1,Falih Al-Jumaili,Iraq,91.53,93,-100,100,110,110,50,70,80,80,80,110,137.5,137.5,327.5,SBD,Raw,M,Masters 4,1952-07-01
1,Valeriy Stepanenko,Kazakhstan,103.75,105,167.5,180,185,185,95,100,,100,185,200,205,205,490,SBD,Raw,M,Masters 4,1951-05-23
1,Ji Hyun Choi,South Korea,46.16,47,107.5,112.5,117.5,117.5,55,57.5,60,60,-137.5,137.5,142.5,142.5,320,SBD,Raw,F,Open,1983-09-26
2,Mei-Xiang Liu,Taiwan,46.78,47,90,100,107.5,107.5,50,57.5,62.5,62.5,130,137.5,142.5,142.5,312.5,SBD,Raw,F,Open,1983-06-18
3,Kristina Tsoy,Kazakhstan,45.77,47,95,100,102.5,102.5,55,60,62.5,62.5,110,120,-125,120,285,SBD,Raw,F,Open,1991-12-14
4,Norah Alshammari,Saudi Arabia,45.59,47,-77.5,77.5,-85,77.5,40,45,-47.5,45,105,117.5,-130,117.5,240,SBD,Raw,F,Open,1997-05-08
DQ,Nada Al Qallaf,Kuwait,46,47,-105,-105,105,105,62.5,65,-67.5,65,-130,-130,-130,,,SBD,Raw,F,Open,1991-02-08
1,Farhanna Farid,Singapore,51.45,52,130,135,-137.5,135,60,65,70,70,195,201.5,202,202,407,SBD,Raw,F,Open,1992-09-26
2,Stella Audrey Lee Yuen Ching,Hong Kong,51.6,52,-140,-140,140,140,67.5,-72.5,72.5,72.5,137.5,142.5,-150,142.5,355,SBD,Raw,F,Open,1993-08-05
3,Chia-Yu Cho,Taiwan,51.48,52,115,125,130,130,47.5,52.5,55,55,142.5,152.5,155,155,340,SBD,Raw,F,Open,1997-03-25
4,Ggot Song Yi Bae,South Korea,51.79,52,-120,120,125,125,60,62.5,65,65,137.5,147.5,-152.5,147.5,337.5,SBD,Raw,F,Open,1995-07-16
5,Soo Ji Kim,South Korea,50.52,52,120,-125,-125,120,57.5,60,62.5,62.5,147.5,-152.5,152.5,152.5,335,SBD,Raw,F,Open,1991-09-30
6,Anastassiya Lisnichenko,Kazakhstan,51.9,52,105,-110,-110,105,82.5,87.5,-92.5,87.5,125,135,-147.5,135,327.5,SBD,Raw,F,Open,1999-02-17
7,Aya Tanaka,Japan,51.83,52,115,120,122.5,122.5,57.5,60,-62.5,60,130,137.5,142.5,142.5,325,SBD,Raw,F,Open,1987-08-01
8,Nasrah Alsuleiman,Saudi Arabia,51.83,52,97.5,105,-110,105,52.5,60,62.5,62.5,120,135,150,150,317.5,SBD,Raw,F,Open,1997-06-21
9,Gerlyn Ong,Singapore,51.59,52,115,122.5,125,125,62.5,67.5,-72.5,67.5,117.5,122.5,-127.5,122.5,315,SBD,Raw,F,Open,1991-08-25
10,Assiya Orazbekova,Kazakhstan,51.55,52,90,97.5,,97.5,67.5,72.5,75,75,95,100,-112.5,100,272.5,SBD,Raw,F,Open,1987-01-30
DQ,Mariam Abbas,UAE,50.52,52,-105,-105,,,,,,,,,,,,SBD,Raw,F,Open,1987-01-31
1,Amanda Seow,Singapore,56.34,57,132.5,140,147.5,147.5,82.5,87.5,90,90,177.5,188,191,191,428.5,SBD,Raw,F,Open,1990-09-20
2,Kai-Hsuan Hsieh,Taiwan,54.84,57,135,147.5,155.5,155.5,65,72.5,77.5,77.5,155,172.5,175,175,408,SBD,Raw,F,Open,1996-01-21
3,Lee Jung Hwa,South Korea,56.57,57,125,127.5,135,135,80,85,-87.5,85,157.5,165,175,175,395,SBD,Raw,F,Open,1986-03-23
4,Kanan Kasai,Japan,56.62,57,130,137.5,-140,137.5,80,85,-90,85,145,152.5,-160,152.5,375,SBD,Raw,F,Open,1996-07-10
5,Rebecca McCafferty,UAE,55.71,57,125,130,135,135,67.5,72.5,75,75,140,150,155,155,365,SBD,Raw,F,Open,1991-11-07
6,Domia Economides,UAE,55.99,57,132.5,140,145,145,75,80,82.5,82.5,125,137.5,-142.5,137.5,365,SBD,Raw,F,Open,1989-03-28
7,Michelle Lee,Singapore,55.85,57,112.5,120,125,125,55,60,62.5,62.5,135,142.5,150,150,337.5,SBD,Raw,F,Open,1995-08-07
8,Kim Yeon Woo,South Korea,55.65,57,105,112.5,-115,112.5,52.5,55,57.5,57.5,122.5,130,135,135,305,SBD,Raw,F,Open,1991-07-26
9,Yen-Tzu Huang,Taiwan,55.95,57,65,75,85,85,90,100,-115.5,100,75,90,100,100,285,SBD,Raw,F,Open,1992-10-22
1,Hayley Khwang,Singapore,62.5,63,130,137.5,142.5,142.5,82.5,-87.5,87.5,87.5,155,165,-167.5,165,395,SBD,Raw,F,Open,1997-12-21
2,Olga Bakhtygaliyeva,Kazakhstan,60.36,63,132.5,140,-145,140,85,90,92.5,92.5,160,-170,-170,160,392.5,SBD,Raw,F,Open,2001-01-01
3,Chuanmei Yang,UAE,62.43,63,127.5,135,140,140,70,75,-77.5,75,150,165,-172.5,165,380,SBD,Raw,F,Open,1992-01-26
4,Christine Erine Alejandro,Philippines,61.63,63,125,135,-137.5,135,67.5,72.5,-75,72.5,162.5,-167.5,-172.5,162.5,370,SBD,Raw,F,Open,1992-12-20
5,Yui Okawa,Japan,61.08,63,120,130,135,135,75,80,82.5,82.5,130,142.5,150,150,367.5,SBD,Raw,F,Open,1995-11-11
6,Harsha Yadav,India,62.78,63,122.5,-132.5,-132.5,122.5,57.5,60,65,65,127.5,137.5,-147.5,137.5,325,SBD,Raw,F,Open,1994-12-20
7,Mayumi Honda,Japan,60.33,63,100,110,115,115,60,65,-67.5,65,120,140,-145,140,320,SBD,Raw,F,Open,1984-04-13
8,Ho Yee Luk,Hong Kong,58.53,63,80,90,100,100,50,-60,60,60,105,115,120,120,280,SBD,Raw,F,Open,1995-02-07
9,Razan Almousa,Saudi Arabia,61.9,63,82.5,87.5,95,95,42.5,-47.5,47.5,47.5,105,117.5,125,125,267.5,SBD,Raw,F,Open,1997-04-12
1,Asel Nurkenova,Kazakhstan,67.64,69,135,142.5,150,150,105,115,123,123,-155,155,175,175,448,SBD,Raw,F,Open,2000-08-14
2,Ammar Zahra Al,Saudi Arabia,65.94,69,130,140,147.5,147.5,65,75,-77.5,75,160,172.5,180,180,402.5,SBD,Raw,F,Open,1989-01-15
3,Angelica Yassine,UAE,67.26,69,132.5,140,143,143,67.5,72.5,-75,72.5,155,165,167.5,167.5,383,SBD,Raw,F,Open,1985-04-08
4,Amartsengel Batkhishig,Mongolia,67.4,69,-127.5,-130,130,130,70,75,-77.5,75,160,170,-180,170,375,SBD,Raw,F,Open,1989-04-07
5,Dalia Zaouil,Lebanon,69,69,100,110,-115,110,62.5,-65,-65,62.5,142.5,145,150,150,322.5,SBD,Raw,F,Open,1992-05-23
6,Yim Chee Liang,Hong Kong,66.31,69,-115,115,-117.5,115,65,70,-75,70,125,135,-145,135,320,SBD,Raw,F,Open,1995-09-21
7,Amna Al Mahri,UAE,68.78,69,112.5,120,-122.5,120,62.5,67.5,70,70,110,120,127.5,127.5,317.5,SBD,Raw,F,Open,1987-03-09
1,Joyce Gail Reboton,Philippines,74.4,76,180,187.5,192.5,192.5,100,-105,105,105,187.5,-192.5,192.5,192.5,490,SBD,Raw,F,Open,1992-04-04
2,Astrid Oduneye-Braniff,UAE,74.99,76,147.5,155,160,160,80,85,-87.5,85,190,202.5,205.5,205.5,450.5,SBD,Raw,F,Open,1983-09-25
3,Shehana Zulazmi,Singapore,74.93,76,175,180,-182.5,180,75,82.5,-85,82.5,175,182.5,-190,182.5,445,SBD,Raw,F,Open,1990-11-09
4,Fatema Haider,Bahrain,72.9,76,132.5,140,,140,65,70,-75,70,152.5,162.5,-170,162.5,372.5,SBD,Raw,F,Open,1986-06-28
5,Lara Wehbi,Lebanon,75.31,76,125,132.5,-140,132.5,60,62.5,-67.5,62.5,130,140,150,150,345,SBD,Raw,F,Open,1991-12-21
6,Hye Jung Cho,South Korea,73.44,76,115,122.5,127.5,127.5,57.5,62.5,-65,62.5,115,125,-135,125,315,SBD,Raw,F,Open,1989-01-16
1,Olessya Kalinkina,Kazakhstan,83.54,84,160,170,175,175,100,105,107.5,107.5,-160,160,172.5,172.5,455,SBD,Raw,F,Open,1985-12-18
2,Thuy Tien Xie,Singapore,80.51,84,-160,165,172.5,172.5,67.5,72.5,-75,72.5,175,-182.5,-193,175,420,SBD,Raw,F,Open,1995-08-15
3,Sarah Widjaja,Singapore,80.74,84,130,137.5,145,145,80,85,-87.5,85,175,-182.5,182.5,182.5,412.5,SBD,Raw,F,Open,1994-06-11
4,Isha Singh,India,84,84,145,160,165,165,62.5,-70,-70,62.5,150,165,-170,165,392.5,SBD,Raw,F,Open,1993-12-13
5,Aishwarya Ramakrishnan,UAE,82.4,84,132.5,140,147.5,147.5,60,65,67.5,67.5,150,165,175,175,390,SBD,Raw,F,Open,1991-08-17
1,Xeniya Okatenko,Kazakhstan,117.4,84+,150,160,170,170,110,117.5,125,125,150,160,162.5,162.5,457.5,SBD,Raw,F,Open,1994-08-22
2,Fatama Akter Nisu,Bangladesh,86.94,84+,125,130,147.5,147.5,60,70,-85,70,135,150,160,160,377.5,SBD,Raw,F,Open,1989-06-15
3,Marina Altaibaeva,Kazakhstan,114.96,84+,45,50,55,55,47.5,50,52.5,52.5,65,67.5,70,70,177.5,SBD,Raw,F,Open,1973-12-25
1,Karina Tychkova,Kazakhstan,42.97,43,75,80,82.5,82.5,37.5,40,42.5,42.5,95,100,-125,100,225,SBD,Raw,F,Sub-Juniors,2004-04-22
2,Darya Leonova,Kazakhstan,40.39,43,65,75,-80,75,40,45,-47.5,45,70,80,90,90,210,SBD,Raw,F,Sub-Juniors,2007-09-25
1,Anjana Krishna V K,India,45.97,47,87.5,95,-102.5,95,47.5,50,-52.5,50,112.5,-120,120,120,265,SBD,Raw,F,Sub-Juniors,2006-04-12
2,Viktoriya Pasyuk,Kazakhstan,46.16,47,80,-87.5,87.5,87.5,47.5,-52.5,-52.5,47.5,95,105,110,110,245,SBD,Raw,F,Sub-Juniors,2007-06-20
3,Kristina Shklyar,Kazakhstan,46.95,47,85,90,95,95,45,50,-52.5,50,85,95,-100,95,240,SBD,Raw,F,Sub-Juniors,2008-01-19
1,Olesya Zhilyayeva,Kazakhstan,51.95,52,100,105,110,110,55,60,-62.5,60,100,110,115,115,285,SBD,Raw,F,Sub-Juniors,2004-01-01
2,Daniya Antony,India,51.12,52,90,92.5,-97.5,92.5,42.5,47.5,50,50,110,120,-142.5,120,262.5,SBD,Raw,F,Sub-Juniors,2005-01-17
3,Sherine Hussain,Bahrain,51.08,52,-95,95,-102.5,95,-40,40,-45,40,105,112.5,-117.5,112.5,247.5,SBD,Raw,F,Sub-Juniors,2005-12-31
1,M R Ashamsa,India,55.88,57,100,-110,-110,100,60,-67.5,-67.5,60,120,130,-140,130,290,SBD,Raw,F,Sub-Juniors,2007-08-08
2,Yuliya Bochenkova,Kazakhstan,54.34,57,90,100,105,105,62.5,67.5,70,70,100,110,-115,110,285,SBD,Raw,F,Sub-Juniors,2004-10-03
1,Alyona Larkina,Kazakhstan,62.77,63,110,117.5,122.5,122.5,57.5,-62.5,62.5,62.5,110,120,122.5,122.5,307.5,SBD,Raw,F,Sub-Juniors,2004-01-01
2,Ninel Ablayeva,Kazakhstan,57.65,63,100,110,-112.5,110,50,-55,57.5,57.5,110,117.5,120,120,287.5,SBD,Raw,F,Sub-Juniors,2005-01-17
1,Pei-Chen Wu,Taiwan,68.89,69,145,152.5,157.5,157.5,62.5,67.5,70,70,135,145,152.5,152.5,380,SBD,Raw,F,Sub-Juniors,2004-09-02
2,Anzhelika Koteneva,Kazakhstan,65.01,69,100,110,-120,110,60,65,-67.5,65,100,115,-120,115,290,SBD,Raw,F,Sub-Juniors,2005-09-08
1,Barno Dzhumabaeva,Kazakhstan,75.36,76,125,140,155,155,110,115,121,121,150,160,170,170,446,SBD,Raw,F,Sub-Juniors,2007-01-26
2,Alkha Raghav,India,71.64,76,142.5,-147.5,-147.5,142.5,50,57.5,60,60,140,150,152.5,152.5,355,SBD,Raw,F,Sub-Juniors,2004-04-30
3,Ayisha Beegam C. V,India,75.38,76,110,120,130,130,50,-57.5,57.5,57.5,120,-142.5,-142.5,120,307.5,SBD,Raw,F,Sub-Juniors,2004-10-04
1,Orkhon Bayantsogt,Mongolia,83.41,84,125,-140,-140,125,50,55,60,60,135,145,-150,145,330,SBD,Raw,F,Sub-Juniors,2005-01-01
2,Yekaterina Shestakova,Kazakhstan,79.76,84,110,120,-130,120,62.5,65,-67.5,65,125,-135,-135,125,310,SBD,Raw,F,Sub-Juniors,2007-01-01
1,Sin-Wei Gu,Taiwan,117.52,84+,180,-192.5,-192.5,180,65,70,75,75,140,152.5,-162.5,152.5,407.5,SBD,Raw,F,Sub-Juniors,2006-06-20
2,Jou-Chun Li,Taiwan,96.8,84+,140,-152.5,-155,140,40,47.5,52.5,52.5,125,140,152.5,152.5,345,SBD,Raw,F,Sub-Juniors,2007-08-24
1,Veronica Ompod,Philippines,42.45,43,90,102.5,110,110,45,50,52.5,52.5,100,115,-136,115,277.5,SBD,Raw,F,Juniors,2000-01-06
1,Shirley Chu,Singapore,46.06,47,110,115,-120,115,55,57.5,-60,57.5,112.5,120,122.5,122.5,295,SBD,Raw,F,Juniors,1999-09-30
2,Jessa Mae Tabuan,Philippines,45.99,47,80,90,-95,90,55,60,62.5,62.5,125,135,-140,135,287.5,SBD,Raw,F,Juniors,2002-12-31
3,S S Sreelakshmi,India,45.68,47,65,75,-85,75,42.5,52.5,60,60,100,-112.5,112.5,112.5,247.5,SBD,Raw,F,Juniors,2002-06-03
1,Lina Alrehaili,Saudi Arabia,51.51,52,-105,105,112.5,112.5,65,-75,-75,65,137.5,147.5,160,160,337.5,SBD,Raw,F,Juniors,2000-03-25
2,Alena Gladkova,Kazakhstan,51.97,52,80,85,90,90,82.5,87.5,-90,87.5,115,-122.5,122.5,122.5,300,SBD,Raw,F,Juniors,2001-02-22
3,Dania Al Mansi,UAE,51.41,52,92.5,-97.5,-97.5,92.5,47.5,50,52.5,52.5,102.5,110,115,115,260,SBD,Raw,F,Juniors,2003-03-28
1,Day Yun Chan,Singapore,56.52,57,127.5,132.5,137.5,137.5,60,62.5,65,65,163,171,175.5,175.5,378,SBD,Raw,F,Juniors,
2,Jia-Huei Wang,Taiwan,56.3,57,135,142.5,-143,142.5,77.5,82.5,-85,82.5,-135,135,152.5,152.5,377.5,SBD,Raw,F,Juniors,1999-09-16
1,K V Nandana,India,62.03,63,125,-132.5,-132.5,125,67.5,-70,-70,67.5,152.5,160,165,165,357.5,SBD,Raw,F,Juniors,2003-01-15
2,Nour Daoud,Lebanon,60.45,63,130,-140,-140,130,65,70,72.5,72.5,137.5,147.5,152.5,152.5,355,SBD,Raw,F,Juniors,1999-02-04
3,Jeong Min Ahn,South Korea,61.3,63,135,142.5,145,145,52.5,57.5,-60,57.5,137.5,-145,147.5,147.5,350,SBD,Raw,F,Juniors,2000-02-29
4,Batkhishig Basanjav,Mongolia,62.96,63,115,122.5,-125,122.5,70,-75,75,75,135,140,145,145,342.5,SBD,Raw,F,Juniors,2000-06-07
5,Almehairbi Naila Saeed,UAE,58.49,63,62.5,72.5,80,80,47.5,52.5,-57.5,52.5,100,110,-130,110,242.5,SBD,Raw,F,Juniors,2003-01-01
6,Mahra Alsuwaidi,UAE,57.4,63,-60,60,70,70,45,50,-52.5,50,-95,100,-115,100,220,SBD,Raw,F,Juniors,2000-08-08
1,Yeon Su Park,South Korea,68.39,69,125,132.5,137.5,137.5,67.5,72.5,-77.5,72.5,147.5,155,165,165,375,SBD,Raw,F,Juniors,2000-03-03
2,P V Anagha,India,64.85,69,125,132.5,137.5,137.5,57.5,60,62.5,62.5,130,-140,145,145,345,SBD,Raw,F,Juniors,1999-10-26
1,Iroda Abdyrova,Kazakhstan,74.6,76,130,135,-140,135,100,-102.5,102.5,102.5,155,162.5,-170,162.5,400,SBD,Raw,F,Juniors,2001-02-09
1,Ean Qi Chong,Singapore,84,84,105,112.5,117.5,117.5,55,57.5,-62.5,57.5,130,140,-150,140,315,SBD,Raw,F,Juniors,2000-12-01
1,Regina Meier,Kazakhstan,125.83,84+,180,190,197.5,197.5,102.5,110,115,115,155,162.5,167.5,167.5,480,SBD,Raw,F,Juniors,1999-03-15
2,Anna Pshenichnova,Kazakhstan,126.67,84+,170,185,192.5,192.5,90,95,-97.5,95,162.5,172.5,175,175,462.5,SBD,Raw,F,Juniors,2001-05-11
3,Sawari Shinde,India,96.22,84+,150,160,-165,160,75,80,-82.5,80,150,157.5,-165,157.5,397.5,SBD,Raw,F,Juniors,2002-02-26
4,A V Anjana,India,110.72,84+,140,152.5,160,160,60,70,-72.5,70,132.5,142.5,-170,142.5,372.5,SBD,Raw,F,Juniors,1999-07-29
1,Smitha Thomas,UAE,51.2,52,-92.5,92.5,97.5,97.5,50,52.5,55,55,117.5,125,132.5,132.5,285,SBD,Raw,F,Masters 1,1975-01-23
1,McCombie Jenifer,Hong Kong,55.82,57,85,90,95,95,67.5,73,76,76,142.5,152.5,157.5,157.5,328.5,SBD,Raw,F,Masters 1,1982-01-02
2,Eri Murayama,Japan,55.21,57,110,120,-125,120,57.5,-62.5,67.5,67.5,-140,-140,140,140,327.5,SBD,Raw,F,Masters 1,1979-02-02
3,Ekta Vishnoi,India,54.2,57,105,110,-115,110,55,57.5,60,60,130,140,145,145,315,SBD,Raw,F,Masters 1,1974-06-03
4,Renuka Desshpande,India,55.46,57,75,80,-90,80,37.5,40,-45,40,92.5,100,105,105,225,SBD,Raw,F,Masters 1,1978-12-18
1,Rashida Momen,UAE,61.95,63,132.5,135,137.5,137.5,67.5,70,,70,145,-150,-150,145,352.5,SBD,Raw,F,Masters 1,1980-03-26
2,Kim Cofino,Thailand,61.5,63,87.5,92.5,97.5,97.5,52.5,55,57.5,57.5,102.5,110,115,115,270,SBD,Raw,F,Masters 1,1977-09-26
1,Tomoko Iwai,Japan,65.55,69,95,102.5,110,110,65,70,-75,70,115,125,130,130,310,SBD,Raw,F,Masters 1,1975-08-01
2,Noor Shakira Zainudin,Singapore,66.54,69,72.5,77.5,-82.5,77.5,45,50,-52.5,50,102.5,105,107.5,107.5,235,SBD,Raw,F,Masters 1,1979-05-27
1,Yunie Yang,Singapore,80.7,84,117.5,122.5,130,130,70,75.5,80,80,165,172.5,177.5,177.5,387.5,SBD,Raw,F,Masters 1,1981-08-30
2,Gulshan Kazi,UAE,78.57,84,115,125,132.5,132.5,60,65,-67.5,65,157.5,175,187.5,187.5,385,SBD,Raw,F,Masters 1,1978-01-01
1,Manjushri Puranik,India,86.65,84+,120,130,137.5,137.5,50,57.5,62.5,62.5,125,135,140,140,340,SBD,Raw,F,Masters 1,1976-07-11
2,Razak Rozana Abdul,Singapore,92.35,84+,-115,120,122.5,122.5,42.5,47.5,50,50,142.5,152.5,157.5,157.5,330,SBD,Raw,F,Masters 1,1981-10-27
3,Aisha Al Suwaidi,UAE,118.6,84+,95,102.5,110,110,60,65,67.5,67.5,117.5,125,132.5,132.5,310,SBD,Raw,F,Masters 1,1980-10-18
4,Bharati Mahapatra,India,84.9,84+,85,90,-95,90,50,57.5,-62.5,57.5,95,105,115,115,262.5,SBD,Raw,F,Masters 1,1981-10-23
1,Susanna Lin,Hong Kong,45.39,47,45,55,-65,55,27.5,30,-35,30,75,80,-85,80,165,SBD,Raw,F,Masters 2,1972-01-31
1,Lai Ling Lee,Hong Kong,52.41,57,70,75,80,80,50,60,-62.5,60,80,90,100,100,240,SBD,Raw,F,Masters 2,1963-04-23
1,Sara Soto Guzman,Thailand,60.78,63,105,110,115,115,60,62.5,-65,62.5,157.5,176,-180,176,353.5,SBD,Raw,F,Masters 2,1966-09-10
2,Michelle Cheam,Singapore,59.63,63,52.5,60,62.5,62.5,30,32.5,35,35,80,85,90,90,187.5,SBD,Raw,F,Masters 2,1964-08-12
1,Ritu Grover,Singapore,66.76,69,92.5,100,105,105,37.5,40,42.5,42.5,120,130,-135,130,277.5,SBD,Raw,F,Masters 2,1969-05-16
2,Vanaja Nair,UAE,64.42,69,-65,65,75,75,35,45,-47.5,45,85,100,-110,100,220,SBD,Raw,F,Masters 2,1972-05-31
1,Nina Martinsen,UAE,80.24,84,90,100,-110.5,100,65,68.5,70.5,70.5,120,135.5,140.5,140.5,311,SBD,Raw,F,Masters 2,1972-09-18
2,Elena Khardina,Uzbekistan,81,84,35,40,45,45,40,45,50,50,65,75,85,85,180,SBD,Raw,F,Masters 2,1971-07-08
1,Pranee Pascoe,Thailand,46.44,47,80,85,-88,85,47.5,50,-53,50,120,123.5,-126,123.5,258.5,SBD,Raw,F,Masters 3,1958-08-11
1,Wing-Yuk Ip,Hong Kong,58.89,63,50,60,65,65,50,55,-57.5,55,70,-85,85,85,205,SBD,Raw,F,Masters 3,1961-11-11
1,Tsai-Wei Lee,Taiwan,67.04,69,90,-100,100,100,45,47.5,50,50,100,110,115,115,265,SBD,Raw,F,Masters 3,1961-07-15
2,Meera Razdan,India,67.95,69,60,67.5,-70,67.5,30,35,37.5,37.5,-90,90,102.5,102.5,207.5,SBD,Raw,F,Masters 3,1958-11-07
